Intro to Tidyverse
…
The tidyverse is very big, so we wont be able to cover everything. In this presentation we will focus on data visualization using ggplot2, new coding syntax using pipe operators, and dplyr/tidyr for data manipulation. At the end of each section we will have exercises for you to complete on your own.

Shelby

Plotting

One of the first entries in the tidyverse was the ggplot2 package. There are many methods to create plots within R, but ggplot2 claims to be one of the most elegant and most versatile packages. I tend to agree with this claim :).

ggplot2 works on the principle of layered graphics, in which different elements are layered on top of one another to tell a story greater than the sum of their individual parts. If youre interested in data visualization, Wickhams paper on the theory of layered graphics might be of interest.

We will be walking through some examples using the mpg dataset from the ggplot2 package.

mpg ## Dataset from the ggplot2 package

## # A tibble: 234 x 11
##    manufacturer model    displ  year   cyl trans   drv     cty   hwy fl    class
##    <chr>        <chr>    <dbl> <int> <int> <chr>   <chr> <int> <int> <chr> <chr>
##  1 audi         a4         1.8  1999     4 auto(l f        18    29 p     comp
##  2 audi         a4         1.8  1999     4 manual f        21    29 p     comp
##  3 audi         a4         2    2008     4 manual f        20    31 p     comp
##  4 audi         a4         2    2008     4 auto(a f        21    30 p     comp
##  5 audi         a4         2.8  1999     6 auto(l f        16    26 p     comp
##  6 audi         a4         2.8  1999     6 manual f        18    26 p     comp
##  7 audi         a4         3.1  2008     6 auto(a f        18    27 p     comp
##  8 audi         a4 quat   1.8  1999     4 manual 4        18    26 p     comp
##  9 audi         a4 quat   1.8  1999     4 auto(l 4        16    25 p     comp
## 10 audi         a4 quat   2    2008     4 manual 4        20    28 p     comp
## #  with 224 more rows
…
The group_by can also be very useful when combined with mutate.

## Scaling mpg within cyl category
mtcars %>% 
  group_by(cyl) %>% 
  mutate(s.mpg = scale(mpg))

## # A tibble: 32 x 13
## # Groups:   cyl [3]
##      mpg   cyl  disp    hp  drat    wt  qsec    vs    am  gear  carb log.mpg
##    <dbl> <dbl> <dbl> <dbl> <dbl> <dbl> <dbl> <dbl> <dbl> <dbl> <dbl>   <dbl>
##  1  21       6  160    110  3.9   2.62  16.5     0     1     4     4    3.04
##  2  21       6  160    110  3.9   2.88  17.0     0     1     4     4    3.04
##  3  22.8     4  108     93  3.85  2.32  18.6     1     1     4     1    3.13
##  4  21.4     6  258    110  3.08  3.22  19.4     1     0     3     1    3.06
##  5  18.7     8  360    175  3.15  3.44  17.0     0     0     3     2    2.93
##  6  18.1     6  225    105  2.76  3.46  20.2     1     0     3     1    2.90
##  7  14.3     8  360    245  3.21  3.57  15.8     0     0     3     4    2.66
##  8  24.4     4  147.    62  3.69  3.19  20       1     0     4     2    3.19
##  9  22.8     4  141.    95  3.92  3.15  22.9     1     0     4     2    3.13
## 10  19.2     6  168.   123  3.92  3.44  18.3     1     0     4     4    2.95
## #  with 22 more rows, and 1 more variable: s.mpg[,1] <dbl>
…
